{
    "fluentMethods": true,
    "relationships": [
        {
            "relationshipType": "one-to-many",
            "relationshipName": "motateselec",
            "otherEntityName": "motateselec",
            "otherEntityRelationshipName": "atencion"
        },
        {
            "relationshipName": "datlab",
            "otherEntityName": "datlab",
            "relationshipType": "many-to-one",
            "otherEntityField": "id"
        },
        {
            "relationshipName": "empleador",
            "otherEntityName": "empleador",
            "relationshipType": "many-to-one",
            "otherEntityField": "id"
        },
        {
            "relationshipName": "oficina",
            "otherEntityName": "oficina",
            "relationshipType": "many-to-one",
            "otherEntityField": "id"
        },
        {
            "relationshipName": "trabajador",
            "otherEntityName": "trabajador",
            "relationshipType": "many-to-one",
            "otherEntityField": "id"
        }
    ],
    "fields": [
        {
            "fieldName": "vObsatenci",
            "javadoc": "OBSERVACION EN LA ATENCION.",
            "fieldType": "String",
            "fieldValidateRules": [
                "maxlength"
            ],
            "fieldValidateRulesMaxlength": 500
        },
        {
            "fieldName": "nFlgembara",
            "javadoc": "BANDERA QUE INDICA QUE EL TRABAJADOR PRESENTA EMBARAZO AL MOMENTO DE LA ATENCION (EMBARAZO=1, NO EMBARAZO=0)",
            "fieldType": "Boolean",
            "fieldValidateRules": [
                "required"
            ]
        },
        {
            "fieldName": "vEstado",
            "javadoc": "ESTADO DE LA ATENCION.",
            "fieldType": "String",
            "fieldValidateRules": [
                "required",
                "maxlength"
            ],
            "fieldValidateRulesMaxlength": 1
        },
        {
            "fieldName": "vNumticket",
            "javadoc": "NUMERO DE TICKET DE LA ATENCION.",
            "fieldType": "String",
            "fieldValidateRules": [
                "required",
                "maxlength"
            ],
            "fieldValidateRulesMaxlength": 10
        },
        {
            "fieldName": "nCodtrepre",
            "javadoc": "CODIGO DEL TRABAJADOR REPRESENTANTE DE LA EMPRESA A QUIEN SE REALIZA LA ATENCION.",
            "fieldType": "Integer"
        },
        {
            "fieldName": "nUsuareg",
            "javadoc": "CODIGO DEL USUARIO QUE REGISTRA.",
            "fieldType": "Integer",
            "fieldValidateRules": [
                "required"
            ]
        },
        {
            "fieldName": "tFecreg",
            "fieldType": "Instant",
            "fieldValidateRules": [
                "required"
            ]
        },
        {
            "fieldName": "nFlgactivo",
            "javadoc": "FECHA Y HORA DEL REGISTRO.",
            "fieldType": "Boolean",
            "fieldValidateRules": [
                "required"
            ]
        },
        {
            "fieldName": "nSedereg",
            "javadoc": "CODIGO DE LA SEDE DONDE SE REGISTRA.",
            "fieldType": "Integer",
            "fieldValidateRules": [
                "required"
            ]
        },
        {
            "fieldName": "nUsuaupd",
            "javadoc": "CODIGO DEL USUARIO QUE MODIFICA EL REGISTRO.",
            "fieldType": "Integer"
        },
        {
            "fieldName": "tFecupd",
            "javadoc": "FECHA Y HORA DE LA MODIFICACION DEL REGISTRO.",
            "fieldType": "Instant"
        },
        {
            "fieldName": "nSedeupd",
            "javadoc": "CODIGO DE LA SEDE DONDE SE MODIFICA EL REGISTRO.",
            "fieldType": "Integer"
        }
    ],
    "changelogDate": "20171124232642",
    "javadoc": "LISTA DE ATENCIONES A LOS TRABAJADORES Y/O EMPLEADORES",
    "entityTableName": "atencion",
    "dto": "no",
    "pagination": "no",
    "service": "no",
    "jpaMetamodelFiltering": false,
    "microserviceName": "DEFENSA"
}