{
    "fluentMethods": true,
    "relationships": [
        {
            "relationshipType": "one-to-many",
            "relationshipName": "motatenofic",
            "otherEntityName": "motatenofic",
            "otherEntityRelationshipName": "motate"
        },
        {
            "relationshipName": "tipmotaten",
            "otherEntityName": "tipmotaten",
            "relationshipType": "many-to-one",
            "otherEntityField": "id"
        }
    ],
    "fields": [
        {
            "fieldName": "vDesmotate",
            "javadoc": "DESCRIPCION DEL MOTIVO DE ATENCION.",
            "fieldType": "String",
            "fieldValidateRules": [
                "required",
                "maxlength"
            ],
            "fieldValidateRulesMaxlength": 200
        },
        {
            "fieldName": "nUsuareg",
            "javadoc": "CODIGO DEL USUARIO QUE REGISTRA.",
            "fieldType": "Integer",
            "fieldValidateRules": [
                "required"
            ]
        },
        {
            "fieldName": "tFecreg",
            "javadoc": "FECHA Y HORA DEL REGISTRO.",
            "fieldType": "Instant",
            "fieldValidateRules": [
                "required"
            ]
        },
        {
            "fieldName": "nFlgactivo",
            "javadoc": "ESTADO ACTIVO DEL REGISTRO (1=ACTIVO, 0=INACTIVO)",
            "fieldType": "Boolean",
            "fieldValidateRules": [
                "required"
            ]
        },
        {
            "fieldName": "nSedereg",
            "javadoc": "CODIGO DE LA SEDE DONDE SE REGISTRA.",
            "fieldType": "Integer",
            "fieldValidateRules": [
                "required"
            ]
        },
        {
            "fieldName": "nUsuaupd",
            "javadoc": "CODIGO DEL USUARIO QUE MODIFICA EL REGISTRO.",
            "fieldType": "Integer"
        },
        {
            "fieldName": "tFecupd",
            "javadoc": "CODIGO DEL USUARIO QUE MODIFICA EL REGISTRO.",
            "fieldType": "Instant"
        },
        {
            "fieldName": "nSedeupd",
            "javadoc": "CODIGO DE LA SEDE DONDE SE MODIFICA EL REGISTRO.",
            "fieldType": "Integer"
        }
    ],
    "changelogDate": "20171124232649",
    "javadoc": "LISTA MAESTRA DE LOS MOTIVOS DE LA ATENCION",
    "entityTableName": "motate",
    "dto": "no",
    "pagination": "no",
    "service": "no",
    "jpaMetamodelFiltering": false,
    "microserviceName": "DEFENSA"
}